%YAML 1.1
%TAG !u! tag:unity3d.com,2011:
--- !u!1 &4427186346059500129
GameObject:
  m_ObjectHideFlags: 0
  m_CorrespondingSourceObject: {fileID: 0}
  m_PrefabInstance: {fileID: 0}
  m_PrefabAsset: {fileID: 0}
  serializedVersion: 6
  m_Component:
  - component: {fileID: 4427186346059500134}
  m_Layer: 0
  m_Name: BulletPathParticleSystem
  m_TagString: Untagged
  m_Icon: {fileID: 0}
  m_NavMeshLayer: 0
  m_StaticEditorFlags: 0
  m_IsActive: 0
--- !u!4 &4427186346059500134
Transform:
  m_ObjectHideFlags: 0
  m_CorrespondingSourceObject: {fileID: 0}
  m_PrefabInstance: {fileID: 0}
  m_PrefabAsset: {fileID: 0}
  m_GameObject: {fileID: 4427186346059500129}
  m_LocalRotation: {x: 0, y: 0, z: 0, w: 1}
  m_LocalPosition: {x: -81.88454, y: -24.179596, z: -2.0772545}
  m_LocalScale: {x: 1, y: 1, z: 1}
  m_ConstrainProportionsScale: 0
  m_Children:
  - {fileID: 4427186347197134041}
  - {fileID: 1363577221871642777}
  m_Father: {fileID: 0}
  m_RootOrder: 0
  m_LocalEulerAnglesHint: {x: 0, y: 0, z: 0}
--- !u!1001 &1363577221773529058
PrefabInstance:
  m_ObjectHideFlags: 0
  serializedVersion: 2
  m_Modification:
    m_TransformParent: {fileID: 4427186346059500134}
    m_Modifications:
    - target: {fileID: 3430864152804260665, guid: de1a835bf88604241bcf2f36ae26bd7f, type: 3}
      propertyPath: m_Name
      value: BulletEmit
      objectReference: {fileID: 0}
    - target: {fileID: 3430864152804260665, guid: de1a835bf88604241bcf2f36ae26bd7f, type: 3}
      propertyPath: m_IsActive
      value: 1
      objectReference: {fileID: 0}
    - target: {fileID: 3430864152804260666, guid: de1a835bf88604241bcf2f36ae26bd7f, type: 3}
      propertyPath: size
      value: 1
      objectReference: {fileID: 0}
    - target: {fileID: 3430864152804260666, guid: de1a835bf88604241bcf2f36ae26bd7f, type: 3}
      propertyPath: speed
      value: 45
      objectReference: {fileID: 0}
    - target: {fileID: 3430864152804260666, guid: de1a835bf88604241bcf2f36ae26bd7f, type: 3}
      propertyPath: color.a
      value: 1
      objectReference: {fileID: 0}
    - target: {fileID: 3430864152804260666, guid: de1a835bf88604241bcf2f36ae26bd7f, type: 3}
      propertyPath: color.b
      value: 1
      objectReference: {fileID: 0}
    - target: {fileID: 3430864152804260666, guid: de1a835bf88604241bcf2f36ae26bd7f, type: 3}
      propertyPath: color.g
      value: 1
      objectReference: {fileID: 0}
    - target: {fileID: 3430864152804260666, guid: de1a835bf88604241bcf2f36ae26bd7f, type: 3}
      propertyPath: color.r
      value: 1
      objectReference: {fileID: 0}
    - target: {fileID: 3430864152804260666, guid: de1a835bf88604241bcf2f36ae26bd7f, type: 3}
      propertyPath: fireRate
      value: 0.1
      objectReference: {fileID: 0}
    - target: {fileID: 3430864152804260666, guid: de1a835bf88604241bcf2f36ae26bd7f, type: 3}
      propertyPath: spinSpeed
      value: -15
      objectReference: {fileID: 0}
    - target: {fileID: 3430864152804260666, guid: de1a835bf88604241bcf2f36ae26bd7f, type: 3}
      propertyPath: bulletSprite
      value: 
      objectReference: {fileID: 21300000, guid: 5cb635582050a7b47a31061dc568ed44, type: 3}
    - target: {fileID: 3430864152804260666, guid: de1a835bf88604241bcf2f36ae26bd7f, type: 3}
      propertyPath: numberOfColumns
      value: 4
      objectReference: {fileID: 0}
    - target: {fileID: 3430864152804260667, guid: de1a835bf88604241bcf2f36ae26bd7f, type: 3}
      propertyPath: m_RootOrder
      value: 0
      objectReference: {fileID: 0}
    - target: {fileID: 3430864152804260667, guid: de1a835bf88604241bcf2f36ae26bd7f, type: 3}
      propertyPath: m_LocalScale.x
      value: 1
      objectReference: {fileID: 0}
    - target: {fileID: 3430864152804260667, guid: de1a835bf88604241bcf2f36ae26bd7f, type: 3}
      propertyPath: m_LocalScale.y
      value: 1
      objectReference: {fileID: 0}
    - target: {fileID: 3430864152804260667, guid: de1a835bf88604241bcf2f36ae26bd7f, type: 3}
      propertyPath: m_LocalPosition.x
      value: 81.88454
      objectReference: {fileID: 0}
    - target: {fileID: 3430864152804260667, guid: de1a835bf88604241bcf2f36ae26bd7f, type: 3}
      propertyPath: m_LocalPosition.y
      value: 24.179596
      objectReference: {fileID: 0}
    - target: {fileID: 3430864152804260667, guid: de1a835bf88604241bcf2f36ae26bd7f, type: 3}
      propertyPath: m_LocalPosition.z
      value: 2.0772545
      objectReference: {fileID: 0}
    - target: {fileID: 3430864152804260667, guid: de1a835bf88604241bcf2f36ae26bd7f, type: 3}
      propertyPath: m_LocalRotation.w
      value: 1
      objectReference: {fileID: 0}
    - target: {fileID: 3430864152804260667, guid: de1a835bf88604241bcf2f36ae26bd7f, type: 3}
      propertyPath: m_LocalRotation.x
      value: -0
      objectReference: {fileID: 0}
    - target: {fileID: 3430864152804260667, guid: de1a835bf88604241bcf2f36ae26bd7f, type: 3}
      propertyPath: m_LocalRotation.y
      value: -0
      objectReference: {fileID: 0}
    - target: {fileID: 3430864152804260667, guid: de1a835bf88604241bcf2f36ae26bd7f, type: 3}
      propertyPath: m_LocalRotation.z
      value: -0
      objectReference: {fileID: 0}
    - target: {fileID: 3430864152804260667, guid: de1a835bf88604241bcf2f36ae26bd7f, type: 3}
      propertyPath: m_LocalEulerAnglesHint.x
      value: 0
      objectReference: {fileID: 0}
    - target: {fileID: 3430864152804260667, guid: de1a835bf88604241bcf2f36ae26bd7f, type: 3}
      propertyPath: m_LocalEulerAnglesHint.y
      value: 0
      objectReference: {fileID: 0}
    - target: {fileID: 3430864152804260667, guid: de1a835bf88604241bcf2f36ae26bd7f, type: 3}
      propertyPath: m_LocalEulerAnglesHint.z
      value: 0
      objectReference: {fileID: 0}
    m_RemovedComponents: []
  m_SourcePrefab: {fileID: 100100000, guid: de1a835bf88604241bcf2f36ae26bd7f, type: 3}
--- !u!4 &4427186347197134041 stripped
Transform:
  m_CorrespondingSourceObject: {fileID: 3430864152804260667, guid: de1a835bf88604241bcf2f36ae26bd7f, type: 3}
  m_PrefabInstance: {fileID: 1363577221773529058}
  m_PrefabAsset: {fileID: 0}
--- !u!1001 &4427186347043574690
PrefabInstance:
  m_ObjectHideFlags: 0
  serializedVersion: 2
  m_Modification:
    m_TransformParent: {fileID: 4427186346059500134}
    m_Modifications:
    - target: {fileID: 3430864152804260665, guid: de1a835bf88604241bcf2f36ae26bd7f, type: 3}
      propertyPath: m_Name
      value: BulletEmit (1)
      objectReference: {fileID: 0}
    - target: {fileID: 3430864152804260665, guid: de1a835bf88604241bcf2f36ae26bd7f, type: 3}
      propertyPath: m_IsActive
      value: 1
      objectReference: {fileID: 0}
    - target: {fileID: 3430864152804260666, guid: de1a835bf88604241bcf2f36ae26bd7f, type: 3}
      propertyPath: size
      value: 1
      objectReference: {fileID: 0}
    - target: {fileID: 3430864152804260666, guid: de1a835bf88604241bcf2f36ae26bd7f, type: 3}
      propertyPath: speed
      value: 45
      objectReference: {fileID: 0}
    - target: {fileID: 3430864152804260666, guid: de1a835bf88604241bcf2f36ae26bd7f, type: 3}
      propertyPath: color.a
      value: 1
      objectReference: {fileID: 0}
    - target: {fileID: 3430864152804260666, guid: de1a835bf88604241bcf2f36ae26bd7f, type: 3}
      propertyPath: color.b
      value: 1
      objectReference: {fileID: 0}
    - target: {fileID: 3430864152804260666, guid: de1a835bf88604241bcf2f36ae26bd7f, type: 3}
      propertyPath: color.g
      value: 1
      objectReference: {fileID: 0}
    - target: {fileID: 3430864152804260666, guid: de1a835bf88604241bcf2f36ae26bd7f, type: 3}
      propertyPath: color.r
      value: 1
      objectReference: {fileID: 0}
    - target: {fileID: 3430864152804260666, guid: de1a835bf88604241bcf2f36ae26bd7f, type: 3}
      propertyPath: fireRate
      value: 0.1
      objectReference: {fileID: 0}
    - target: {fileID: 3430864152804260666, guid: de1a835bf88604241bcf2f36ae26bd7f, type: 3}
      propertyPath: spinSpeed
      value: 15
      objectReference: {fileID: 0}
    - target: {fileID: 3430864152804260666, guid: de1a835bf88604241bcf2f36ae26bd7f, type: 3}
      propertyPath: bulletSprite
      value: 
      objectReference: {fileID: 21300000, guid: 5cb635582050a7b47a31061dc568ed44, type: 3}
    - target: {fileID: 3430864152804260666, guid: de1a835bf88604241bcf2f36ae26bd7f, type: 3}
      propertyPath: numberOfColumns
      value: 4
      objectReference: {fileID: 0}
    - target: {fileID: 3430864152804260667, guid: de1a835bf88604241bcf2f36ae26bd7f, type: 3}
      propertyPath: m_RootOrder
      value: 1
      objectReference: {fileID: 0}
    - target: {fileID: 3430864152804260667, guid: de1a835bf88604241bcf2f36ae26bd7f, type: 3}
      propertyPath: m_LocalScale.x
      value: 1
      objectReference: {fileID: 0}
    - target: {fileID: 3430864152804260667, guid: de1a835bf88604241bcf2f36ae26bd7f, type: 3}
      propertyPath: m_LocalScale.y
      value: 1
      objectReference: {fileID: 0}
    - target: {fileID: 3430864152804260667, guid: de1a835bf88604241bcf2f36ae26bd7f, type: 3}
      propertyPath: m_LocalPosition.x
      value: 81.88454
      objectReference: {fileID: 0}
    - target: {fileID: 3430864152804260667, guid: de1a835bf88604241bcf2f36ae26bd7f, type: 3}
      propertyPath: m_LocalPosition.y
      value: 24.179596
      objectReference: {fileID: 0}
    - target: {fileID: 3430864152804260667, guid: de1a835bf88604241bcf2f36ae26bd7f, type: 3}
      propertyPath: m_LocalPosition.z
      value: 2.0772545
      objectReference: {fileID: 0}
    - target: {fileID: 3430864152804260667, guid: de1a835bf88604241bcf2f36ae26bd7f, type: 3}
      propertyPath: m_LocalRotation.w
      value: 1
      objectReference: {fileID: 0}
    - target: {fileID: 3430864152804260667, guid: de1a835bf88604241bcf2f36ae26bd7f, type: 3}
      propertyPath: m_LocalRotation.x
      value: -0
      objectReference: {fileID: 0}
    - target: {fileID: 3430864152804260667, guid: de1a835bf88604241bcf2f36ae26bd7f, type: 3}
      propertyPath: m_LocalRotation.y
      value: -0
      objectReference: {fileID: 0}
    - target: {fileID: 3430864152804260667, guid: de1a835bf88604241bcf2f36ae26bd7f, type: 3}
      propertyPath: m_LocalRotation.z
      value: -0
      objectReference: {fileID: 0}
    - target: {fileID: 3430864152804260667, guid: de1a835bf88604241bcf2f36ae26bd7f, type: 3}
      propertyPath: m_LocalEulerAnglesHint.x
      value: 0
      objectReference: {fileID: 0}
    - target: {fileID: 3430864152804260667, guid: de1a835bf88604241bcf2f36ae26bd7f, type: 3}
      propertyPath: m_LocalEulerAnglesHint.y
      value: 0
      objectReference: {fileID: 0}
    - target: {fileID: 3430864152804260667, guid: de1a835bf88604241bcf2f36ae26bd7f, type: 3}
      propertyPath: m_LocalEulerAnglesHint.z
      value: 0
      objectReference: {fileID: 0}
    m_RemovedComponents: []
  m_SourcePrefab: {fileID: 100100000, guid: de1a835bf88604241bcf2f36ae26bd7f, type: 3}
--- !u!4 &1363577221871642777 stripped
Transform:
  m_CorrespondingSourceObject: {fileID: 3430864152804260667, guid: de1a835bf88604241bcf2f36ae26bd7f, type: 3}
  m_PrefabInstance: {fileID: 4427186347043574690}
  m_PrefabAsset: {fileID: 0}
